{
    "name": "KeyTextEncodedPreGenerated",
    "fields": [
        {
            "fieldName": "instantCreation",
            "fieldType": "Instant"
        },
        {
            "fieldName": "status",
            "fieldType": "KeyStatusEnum",
            "fieldValues": "AVAILABLE,RESERVED,IN_USE,INACTIVE"
        }
    ],
    "relationships": [],
    "changelogDate": "20190311023817",
    "javadoc": "KeyTextEncodedPreGenerated entity.\nStores texts encoded generated in a batch way.\n@author Andre Nascimento",
    "entityTableName": "key_text_encoded_pre_generated",
    "dto": "mapstruct",
    "pagination": "pagination",
    "service": "serviceImpl",
    "jpaMetamodelFiltering": false,
    "fluentMethods": true,
    "clientRootFolder": "",
    "applications": [
        "gtw01AlnsNeuedaUrlShortener",
        "ms02TextEncoder"
    ],
    "microserviceName": "ms02TextEncoder"
}